^C:\USERS\USER\DOCUMENTS\KH0523\KH0523\ODDEVEN\DEBUG\MAIN.OBJ
C:\USERS\USER\DOCUMENTS\KH0523\KH0523\DEBUG\ODDEVEN.EXE
C:\USERS\USER\DOCUMENTS\KH0523\KH0523\DEBUG\ODDEVEN.ILK
C:\USERS\USER\DOCUMENTS\KH0523\KH0523\DEBUG\ODDEVEN.PDB
